<?xml version="1.0" encoding="UTF-8"?>
<svg width="1728px" height="900px" viewBox="0 0 1728 900" version="1.1" xmlns="http://www.w3.org/2000/svg" xmlns:xlink="http://www.w3.org/1999/xlink">
    <!-- Generator: Sketch 53 (72520) - https://sketchapp.com -->
    <title>value-stream-management</title>
    <desc>Created with Sketch.</desc>
    <defs>
        <linearGradient x1="100%" y1="-1205.58824%" x2="0%" y2="-1205.58824%" id="linearGradient-value-1">
            <stop stop-color="#6262CC" stop-opacity="0" offset="8%"></stop>
            <stop stop-color="#6262CC" stop-opacity="0.6" offset="100%"></stop>
        </linearGradient>
        <linearGradient x1="100%" y1="-1329.11765%" x2="0%" y2="-1329.11765%" id="linearGradient-value-2">
            <stop stop-color="#9795F9" stop-opacity="0" offset="8%"></stop>
            <stop stop-color="#9795F9" stop-opacity="0.5" offset="100%"></stop>
        </linearGradient>
        <linearGradient x1="100%" y1="-1453.56092%" x2="0%" y2="-1453.56092%" id="linearGradient-value-3">
            <stop stop-color="#6262CC" stop-opacity="0" offset="8%"></stop>
            <stop stop-color="#6262CC" stop-opacity="0.6" offset="100%"></stop>
        </linearGradient>
        <linearGradient x1="-150%" y1="100%" x2="-150%" y2="0%" id="linearGradient-value-4">
            <stop stop-color="#272359" stop-opacity="0" offset="0%"></stop>
            <stop stop-color="#139B8B" stop-opacity="0.3" offset="100%"></stop>
        </linearGradient>
        <linearGradient x1="7.89491929e-15%" y1="-982.058824%" x2="100.002222%" y2="-982.058824%" id="linearGradient-value-5">
            <stop stop-color="#6262CC" stop-opacity="0" offset="8%"></stop>
            <stop stop-color="#6262CC" stop-opacity="0.6" offset="100%"></stop>
        </linearGradient>
        <linearGradient x1="3.94745964e-15%" y1="-1105.58824%" x2="100.001111%" y2="-1105.58824%" id="linearGradient-value-6">
            <stop stop-color="#9795F9" stop-opacity="0" offset="8%"></stop>
            <stop stop-color="#9795F9" stop-opacity="0.5" offset="100%"></stop>
        </linearGradient>
        <linearGradient x1="0%" y1="-1229.17647%" x2="100%" y2="-1229.17647%" id="linearGradient-value-7">
            <stop stop-color="#6262CC" stop-opacity="0" offset="8%"></stop>
            <stop stop-color="#6262CC" stop-opacity="0.6" offset="100%"></stop>
        </linearGradient>
        <linearGradient x1="-22.7263636%" y1="100%" x2="-22.7263636%" y2="0%" id="linearGradient-value-8">
            <stop stop-color="#272359" stop-opacity="0" offset="0%"></stop>
            <stop stop-color="#139B8B" stop-opacity="0.3" offset="100%"></stop>
        </linearGradient>
    </defs>
    <g id="Page-1" stroke="none" stroke-width="1" fill="none" fill-rule="evenodd">
        <g id="Desktop-HD-Copy-6" transform="translate(-138.000000, -217.000000)">
            <g id="value-stream-management" transform="translate(93.000000, 217.000000)">
                <path d="M1322.11123,345.563758 L1304.68602,344.346644 C1301.23722,344.105034 1298.69139,341.021477 1299.11116,337.587584 L1318.47821,178.970134 C1319.00671,174.648322 1323.79637,172.286577 1327.53811,174.500336 L1328.19344,174.886913 C1330.0628,175.992282 1331.19529,178.015772 1331.16207,180.187248 L1328.5649,339.647315 C1328.51054,343.111409 1325.56003,345.81745 1322.10519,345.575839" id="Path" fill="#A67C52" fill-rule="nonzero"></path>
                <polygon id="Path" fill="url(#linearGradient-value-2)" fill-rule="nonzero" points="1416.36439 615.956376 1688.1614 615.956376 1688.1614 667.298658 1416.36439 667.298658"></polygon>
                <path d="M1229.12646,615.956376 L1183.82696,615.956376 C1182.15993,615.956376 1180.80699,617.309396 1180.80699,618.97651 L1180.80699,664.278523 C1180.80699,665.945638 1182.15993,667.298658 1183.82696,667.298658 L1229.12646,667.298658 C1230.79348,667.298658 1232.14642,665.945638 1232.14642,664.278523 L1232.14642,618.97651 C1232.14642,617.309396 1230.7965,615.956376 1229.12646,615.956376" id="Path" fill="#3F3177" fill-rule="nonzero"></path>
                <path d="M1229.12646,679.379195 L1183.82696,679.379195 C1182.15993,679.379195 1180.80699,680.732215 1180.80699,682.399329 L1180.80699,727.701342 C1180.80699,729.368456 1182.15993,730.721477 1183.82696,730.721477 L1229.12646,730.721477 C1230.79348,730.721477 1232.14642,729.368456 1232.14642,727.701342 L1232.14642,682.399329 C1232.14642,680.732215 1230.7965,679.379195 1229.12646,679.379195" id="Path" fill="#272359" fill-rule="nonzero"></path>
                <path d="M1292.54576,615.956376 L1247.24626,615.956376 C1245.57923,615.956376 1244.22629,617.309396 1244.22629,618.97651 L1244.22629,664.278523 C1244.22629,665.945638 1245.57923,667.298658 1247.24626,667.298658 L1292.54576,667.298658 C1294.21278,667.298658 1295.56572,665.945638 1295.56572,664.278523 L1295.56572,618.97651 C1295.56572,617.309396 1294.2158,615.956376 1292.54576,615.956376" id="Path" fill="#272359" fill-rule="nonzero"></path>
                <path d="M1292.54576,679.379195 L1247.24626,679.379195 C1245.57923,679.379195 1244.22629,680.732215 1244.22629,682.399329 L1244.22629,727.701342 C1244.22629,729.368456 1245.57923,730.721477 1247.24626,730.721477 L1292.54576,730.721477 C1294.21278,730.721477 1295.56572,729.368456 1295.56572,727.701342 L1295.56572,682.399329 C1295.56572,680.732215 1294.2158,679.379195 1292.54576,679.379195" id="Path" fill="#6262CC" fill-rule="nonzero"></path>
                <path d="M1355.96506,615.956376 L1310.66556,615.956376 C1308.99854,615.956376 1307.64559,617.309396 1307.64559,618.97651 L1307.64559,664.278523 C1307.64559,665.945638 1308.99854,667.298658 1310.66556,667.298658 L1355.96506,667.298658 C1357.63208,667.298658 1358.98502,665.945638 1358.98502,664.278523 L1358.98502,618.97651 C1358.98502,617.309396 1357.6351,615.956376 1355.96506,615.956376" id="Path" fill="#3F3177" fill-rule="nonzero"></path>
                <path d="M1355.96506,679.379195 L1310.66556,679.379195 C1308.99854,679.379195 1307.64559,680.732215 1307.64559,682.399329 L1307.64559,727.701342 C1307.64559,729.368456 1308.99854,730.721477 1310.66556,730.721477 L1355.96506,730.721477 C1357.63208,730.721477 1358.98502,729.368456 1358.98502,727.701342 L1358.98502,682.399329 C1358.98502,680.732215 1357.6351,679.379195 1355.96506,679.379195" id="Path" fill="#9795F9" fill-rule="nonzero"></path>
                <path d="M1419.38436,615.956376 L1374.08486,615.956376 C1372.41784,615.956376 1371.06489,617.309396 1371.06489,618.97651 L1371.06489,664.278523 C1371.06489,665.945638 1372.41784,667.298658 1374.08486,667.298658 L1419.38436,667.298658 C1421.05138,667.298658 1422.40433,665.945638 1422.40433,664.278523 L1422.40433,618.97651 C1422.40433,617.309396 1421.0544,615.956376 1419.38436,615.956376" id="Path" fill="#6262CC" fill-rule="nonzero"></path>
                <path d="M1419.38436,679.379195 L1374.08486,679.379195 C1372.41784,679.379195 1371.06489,680.732215 1371.06489,682.399329 L1371.06489,727.701342 C1371.06489,729.368456 1372.41784,730.721477 1374.08486,730.721477 L1419.38436,730.721477 C1421.05138,730.721477 1422.40433,729.368456 1422.40433,727.701342 L1422.40433,682.399329 C1422.40433,680.732215 1421.0544,679.379195 1419.38436,679.379195" id="Path" fill="#3F3177" fill-rule="nonzero"></path>
                <g id="Group" transform="translate(1434.484193, 676.510067)" fill-rule="nonzero">
                    <polygon id="Path" fill="url(#linearGradient-value-2)" points="45.2995008 2.86912752 317.096506 2.86912752 317.096506 54.2114094 45.2995008 54.2114094"></polygon>
                    <path d="M48.3194676,2.86912752 L3.01996672,2.86912752 C1.35294509,2.86912752 0,4.22214765 0,5.88926174 L0,51.1912752 C0,52.8583893 1.35294509,54.2114094 3.01996672,54.2114094 L48.3194676,54.2114094 C49.9864892,54.2114094 51.3394343,52.8583893 51.3394343,51.1912752 L51.3394343,5.88926174 C51.3394343,4.22214765 49.9895092,2.86912752 48.3194676,2.86912752" id="Path" fill="#9795F9"></path>
                </g>
                <path d="M1120.40765,730.721477 L1165.70715,730.721477 C1167.37418,730.721477 1168.72712,729.368456 1168.72712,727.701342 L1168.72712,682.399329 C1168.72712,680.732215 1167.37418,679.379195 1165.70715,679.379195 L1120.40765,679.379195 C1118.74063,679.379195 1117.38769,680.732215 1117.38769,682.399329 L1117.38769,727.701342 C1117.38769,729.371477 1118.74063,730.721477 1120.40765,730.721477" id="Path" fill="#9795F9" fill-rule="nonzero"></path>
                <path d="M1102.28785,794.144295 L1056.98835,794.144295 C1055.32133,794.144295 1053.96839,792.791275 1053.96839,791.124161 L1053.96839,745.822148 C1053.96839,744.155034 1055.32133,742.802013 1056.98835,742.802013 L1102.28785,742.802013 C1103.95488,742.802013 1105.30782,744.155034 1105.30782,745.822148 L1105.30782,791.124161 C1105.30782,792.791275 1103.9579,794.144295 1102.28785,794.144295" id="Path" fill="#6262CC" fill-rule="nonzero"></path>
                <path d="M1165.70715,794.144295 L1120.40765,794.144295 C1118.74063,794.144295 1117.38769,792.791275 1117.38769,791.124161 L1117.38769,745.822148 C1117.38769,744.155034 1118.74063,742.802013 1120.40765,742.802013 L1165.70715,742.802013 C1167.37418,742.802013 1168.72712,744.155034 1168.72712,745.822148 L1168.72712,791.124161 C1168.72712,792.791275 1167.3772,794.144295 1165.70715,794.144295" id="Path" fill="#E4E4E4" fill-rule="nonzero"></path>
                <path d="M1437.50416,742.832215 L1482.80366,742.832215 C1484.47068,742.832215 1485.82363,744.185235 1485.82363,745.852349 L1485.82363,791.154362 C1485.82363,792.821477 1484.47068,794.174497 1482.80366,794.174497 L1437.50416,794.174497 C1435.83714,794.174497 1434.48419,792.821477 1434.48419,791.154362 L1434.48419,745.852349 C1434.48419,744.185235 1435.83714,742.832215 1437.50416,742.832215" id="Path" fill="#E4E4E4" fill-rule="nonzero"></path>
                <path d="M1374.08486,742.832215 L1419.38436,742.832215 C1421.05138,742.832215 1422.40433,744.185235 1422.40433,745.852349 L1422.40433,791.154362 C1422.40433,792.821477 1421.05138,794.174497 1419.38436,794.174497 L1374.08486,794.174497 C1372.41784,794.174497 1371.06489,792.821477 1371.06489,791.154362 L1371.06489,745.852349 C1371.06489,744.185235 1372.41784,742.832215 1374.08486,742.832215" id="Path" fill="#6262CC" fill-rule="nonzero"></path>
                <path d="M1310.66556,742.832215 L1355.96506,742.832215 C1357.63208,742.832215 1358.98502,744.185235 1358.98502,745.852349 L1358.98502,791.154362 C1358.98502,792.821477 1357.63208,794.174497 1355.96506,794.174497 L1310.66556,794.174497 C1308.99854,794.174497 1307.64559,792.821477 1307.64559,791.154362 L1307.64559,745.852349 C1307.64559,744.185235 1308.99854,742.832215 1310.66556,742.832215" id="Path" fill="#9795F9" fill-rule="nonzero"></path>
                <path d="M1247.24626,742.832215 L1292.54576,742.832215 C1294.21278,742.832215 1295.56572,744.185235 1295.56572,745.852349 L1295.56572,791.154362 C1295.56572,792.821477 1294.21278,794.174497 1292.54576,794.174497 L1247.24626,794.174497 C1245.57923,794.174497 1244.22629,792.821477 1244.22629,791.154362 L1244.22629,745.852349 C1244.22629,744.185235 1245.57923,742.832215 1247.24626,742.832215" id="Path" fill="#3F3177" fill-rule="nonzero"></path>
                <path d="M1183.82696,742.832215 L1229.12646,742.832215 C1230.79348,742.832215 1232.14642,744.185235 1232.14642,745.852349 L1232.14642,791.154362 C1232.14642,792.821477 1230.79348,794.174497 1229.12646,794.174497 L1183.82696,794.174497 C1182.15993,794.174497 1180.80699,792.821477 1180.80699,791.154362 L1180.80699,745.852349 C1180.80699,744.185235 1182.15993,742.832215 1183.82696,742.832215" id="Path" fill="#272359" fill-rule="nonzero"></path>
                <g id="Group" transform="translate(1497.903494, 739.932886)" fill-rule="nonzero">
                    <polygon id="Path" fill="url(#linearGradient-value-3)" points="45.2995008 2.89932886 317.096506 2.89932886 317.096506 54.2114094 45.2995008 54.2114094"></polygon>
                    <path d="M48.3194676,54.2114094 L3.01996672,54.2114094 C1.35294509,54.2114094 0,52.8583893 0,51.1912752 L0,5.88926174 C0,4.22214765 1.35294509,2.86912752 3.01996672,2.86912752 L48.3194676,2.86912752 C49.9864892,2.86912752 51.3394343,4.22214765 51.3394343,5.88926174 L51.3394343,51.1912752 C51.3394343,52.8583893 49.9895092,54.2114094 48.3194676,54.2114094" id="Path" fill="#6262CC"></path>
                </g>
                <path d="M999.608985,763.973154 C1019.73706,763.973154 1019.73706,776.053691 1039.86514,776.053691 C1059.99624,776.053691 1059.99624,763.973154 1080.12734,763.973154 C1100.25542,763.973154 1100.25542,776.053691 1120.38349,776.053691 C1140.51157,776.053691 1140.51157,763.973154 1160.63965,763.973154 C1180.77075,763.973154 1180.77075,776.053691 1200.90185,776.053691 C1221.03597,776.053691 1221.03597,763.973154 1241.17008,763.973154 C1261.30118,763.973154 1261.30118,776.053691 1281.42926,776.053691 C1301.56036,776.053691 1301.56036,763.973154 1321.69448,763.973154 C1341.82859,763.973154 1341.82859,776.053691 1361.95969,776.053691 C1382.08475,776.053691 1382.08475,763.973154 1402.21283,763.973154 C1422.34393,763.973154 1422.34393,776.053691 1442.47502,776.053691 C1462.61216,776.053691 1462.61216,763.973154 1482.75232,763.973154 C1502.88342,763.973154 1502.88342,776.053691 1523.01754,776.053691 C1543.16374,776.053691 1543.16374,763.973154 1563.30993,763.973154 C1583.45613,763.973154 1583.45613,776.053691 1603.60233,776.053691" id="Path" stroke="#139B8B" stroke-width="6.04026846" stroke-linecap="round" stroke-linejoin="round"></path>
                <path d="M1664.00166,900 L1603.60233,776.02349 C1583.45613,776.02349 1583.45613,763.942953 1563.30993,763.942953 C1543.16374,763.942953 1543.16374,776.02349 1523.01754,776.02349 C1502.88644,776.02349 1502.88644,763.942953 1482.75232,763.942953 C1462.61518,763.942953 1462.61518,776.02349 1442.47502,776.02349 C1422.34393,776.02349 1422.34393,763.942953 1402.21283,763.942953 C1382.08777,763.942953 1382.08777,776.02349 1361.95969,776.02349 C1341.82557,776.02349 1341.82557,763.942953 1321.69448,763.942953 C1301.56338,763.942953 1301.56338,776.02349 1281.42926,776.02349 C1261.29816,776.02349 1261.29816,763.942953 1241.17008,763.942953 C1221.03597,763.942953 1221.03597,776.02349 1200.90185,776.02349 C1180.77075,776.02349 1180.77075,763.942953 1160.63965,763.942953 C1140.51157,763.942953 1140.51157,776.02349 1120.38349,776.02349 C1100.25542,776.02349 1100.25542,763.942953 1080.12734,763.942953 C1059.99624,763.942953 1059.99624,776.02349 1039.86514,776.02349 C1019.73706,776.02349 1019.73706,763.942953 999.608985,763.942953 L1060.00832,900 L1664.00166,900" id="Path" fill="url(#linearGradient-value-4)" fill-rule="nonzero"></path>
                <path d="M1331.11073,479.144295 L1272.22742,474.432886 C1268.66688,474.148993 1266.12709,470.851007 1266.76732,467.33255 L1291.38005,331.692282 C1292.0535,327.986577 1295.91302,325.79396 1299.44034,327.113758 L1330.0477,338.569128 C1332.34892,339.429866 1333.89816,341.589262 1333.96762,344.053691 L1337.63386,472.95 C1337.73352,476.54396 1334.69241,479.431208 1331.11073,479.144295" id="Path" fill="#C69C6D" fill-rule="nonzero"></path>
                <path d="M1352.3713,603.875839 L1250.76754,603.875839 C1247.24324,603.875839 1244.46487,600.867785 1244.74572,597.352349 L1255.76256,459.643289 C1256.04946,456.037248 1259.42276,453.491275 1262.9682,454.201007 L1342.48091,470.105034 C1345.10526,470.630537 1347.06824,472.817114 1347.31285,475.480872 L1358.38707,597.282886 C1358.71021,600.822483 1355.92278,603.872819 1352.3713,603.872819" id="Path" fill="#A67C52" fill-rule="nonzero"></path>
                <ellipse id="Oval" fill="#C69C6D" fill-rule="nonzero" cx="1344.18719" cy="213.010067" rx="21.1397671" ry="21.1409396"></ellipse>
                <ellipse id="Oval" fill="#C69C6D" fill-rule="nonzero" cx="1298.88769" cy="213.010067" rx="21.1397671" ry="21.1409396"></ellipse>
                <ellipse id="Oval" fill="#A67C52" fill-rule="nonzero" cx="1326.06739" cy="191.869128" rx="21.1397671" ry="21.1409396"></ellipse>
                <g id="Group" transform="translate(1087.188020, 114.765101)" fill-rule="nonzero">
                    <path d="M142.542429,60.4026846 C152.831456,50.6627517 162.48629,45.3020134 162.48629,45.3020134 L159.040507,60.4026846 L243.001622,60.4026846 C243.001622,60.4026846 188.917038,0 122.202953,0 C55.4918885,0 1.40428453,60.4026846 1.40428453,60.4026846 L64.0202745,60.4026846 C74.3062812,50.6627517 83.9641348,45.3020134 83.9641348,45.3020134 L80.5213727,60.4026846 L142.542429,60.4026846" id="Path" fill="#139B8B"></path>
                    <path d="M142.542429,60.4026846 C152.831456,50.6627517 162.48629,45.3020134 162.48629,45.3020134 L159.040507,60.4026846 L243.001622,60.4026846 C243.001622,60.4026846 188.917038,30.2013423 122.202953,30.2013423 C55.4918885,30.2013423 1.40428453,60.4026846 1.40428453,60.4026846 L64.0202745,60.4026846 C74.3062812,50.6627517 83.9641348,45.3020134 83.9641348,45.3020134 L80.5213727,60.4026846 L142.542429,60.4026846" id="Path" fill="#078973"></path>
                </g>
                <g id="Group" transform="translate(1322.745424, 114.765101)" fill-rule="nonzero">
                    <path d="M101.863478,60.4026846 C91.5744509,50.6627517 81.9196173,45.3020134 81.9196173,45.3020134 L85.3653993,60.4026846 L1.40428453,60.4026846 C1.40428453,60.4026846 55.4888686,0 122.202953,0 C188.914018,0 243.001622,60.4026846 243.001622,60.4026846 L180.385632,60.4026846 C170.099626,50.6627517 160.441772,45.3020134 160.441772,45.3020134 L163.884534,60.4026846 L101.863478,60.4026846" id="Path" fill="#139B8B"></path>
                    <path d="M101.863478,60.4026846 C91.5744509,50.6627517 81.9196173,45.3020134 81.9196173,45.3020134 L85.3653993,60.4026846 L1.40428453,60.4026846 C1.40428453,60.4026846 55.4888686,30.2013423 122.202953,30.2013423 C188.914018,30.2013423 243.001622,60.4026846 243.001622,60.4026846 L180.385632,60.4026846 C170.099626,50.6627517 160.441772,45.3020134 160.441772,45.3020134 L163.884534,60.4026846 L101.863478,60.4026846" id="Path" fill="#078973"></path>
                </g>
                <g id="Group" transform="translate(1322.745424, 175.167785)" fill-rule="nonzero">
                    <path d="M72.237604,71.2449664 C71.8480283,57.083557 68.8099418,46.461745 68.8099418,46.461745 L60.5684526,59.5751678 L1.19892679,0.202348993 C1.19892679,0.202348993 82.1521547,-4.26442953 129.336115,42.907047 C176.520075,90.0785235 172.038444,171.051342 172.038444,171.051342 L127.762712,126.773154 C127.376156,112.611745 124.33807,101.992953 124.33807,101.992953 L116.096581,115.106376 L72.2436439,71.2510067" id="Path" fill="#139B8B"></path>
                    <path d="M72.237604,71.2449664 C71.8480283,57.083557 68.8099418,46.461745 68.8099418,46.461745 L60.5684526,59.5751678 L1.19892679,0.202348993 C1.19892679,0.202348993 60.7949501,17.0909396 107.98495,64.259396 C155.17495,111.427852 172.038444,171.021141 172.038444,171.021141 L127.762712,126.742953 C127.376156,112.581544 124.33807,101.962752 124.33807,101.962752 L116.096581,115.076174 L72.2436439,71.2208054" id="Path" fill="#078973"></path>
                </g>
                <g id="Group" transform="translate(1156.647255, 175.167785)" fill-rule="nonzero">
                    <path d="M102.407072,71.2449664 C102.796647,57.083557 105.834734,46.461745 105.834734,46.461745 L114.076223,59.5751678 L173.445749,0.202348993 C173.445749,0.202348993 92.4925208,-4.26442953 45.3085607,42.907047 C-1.87539933,90.0785235 2.60623128,171.051342 2.60623128,171.051342 L46.8819634,126.773154 C47.2685191,112.611745 50.3066057,101.992953 50.3066057,101.992953 L58.5480948,115.106376 L102.401032,71.2510067" id="Path" fill="#139B8B"></path>
                    <path d="M102.407072,71.2449664 C102.796647,57.083557 105.834734,46.461745 105.834734,46.461745 L114.076223,59.5751678 L173.445749,0.202348993 C173.445749,0.202348993 113.849725,17.0909396 66.6597255,64.259396 C19.4697255,111.427852 2.60623128,171.021141 2.60623128,171.021141 L46.8819634,126.742953 C47.2685191,112.581544 50.3066057,101.962752 50.3066057,101.962752 L58.5480948,115.076174 L102.401032,71.2208054" id="Path" fill="#078973"></path>
                </g>
                <path d="M495.908735,230.798658 L513.333943,229.581544 C516.782745,229.339933 519.328577,226.256376 518.908802,222.822483 L499.541755,64.2050336 C499.013261,59.8832215 494.223594,57.5214765 490.481855,59.7352349 L489.826522,60.1218121 C487.957163,61.2271812 486.824676,63.2506711 486.857895,65.4221477 L489.455067,224.882215 C489.509426,228.346309 492.459933,231.052349 495.914775,230.810738" id="Path" fill="#A67C52" fill-rule="nonzero"></path>
                <polygon id="Path" fill="url(#linearGradient-value-5)" fill-rule="nonzero" points="129.852529 501.191275 401.649534 501.191275 401.649534 552.533557 129.852529 552.533557"></polygon>
                <path d="M588.893511,501.191275 L634.193012,501.191275 C635.860033,501.191275 637.212978,502.544295 637.212978,504.211409 L637.212978,549.513423 C637.212978,551.180537 635.860033,552.533557 634.193012,552.533557 L588.893511,552.533557 C587.226489,552.533557 585.873544,551.180537 585.873544,549.513423 L585.873544,504.211409 C585.873544,502.544295 587.226489,501.191275 588.893511,501.191275" id="Path" fill="#3F3177" fill-rule="nonzero"></path>
                <path d="M588.893511,564.614094 L634.193012,564.614094 C635.860033,564.614094 637.212978,565.967114 637.212978,567.634228 L637.212978,612.936242 C637.212978,614.603356 635.860033,615.956376 634.193012,615.956376 L588.893511,615.956376 C587.226489,615.956376 585.873544,614.603356 585.873544,612.936242 L585.873544,567.634228 C585.873544,565.967114 587.226489,564.614094 588.893511,564.614094" id="Path" fill="#272359" fill-rule="nonzero"></path>
                <path d="M525.47421,501.191275 L570.77371,501.191275 C572.440732,501.191275 573.793677,502.544295 573.793677,504.211409 L573.793677,549.513423 C573.793677,551.180537 572.440732,552.533557 570.77371,552.533557 L525.47421,552.533557 C523.807188,552.533557 522.454243,551.180537 522.454243,549.513423 L522.454243,504.211409 C522.454243,502.544295 523.807188,501.191275 525.47421,501.191275" id="Path" fill="#272359" fill-rule="nonzero"></path>
                <path d="M525.47421,564.614094 L570.77371,564.614094 C572.440732,564.614094 573.793677,565.967114 573.793677,567.634228 L573.793677,612.936242 C573.793677,614.603356 572.440732,615.956376 570.77371,615.956376 L525.47421,615.956376 C523.807188,615.956376 522.454243,614.603356 522.454243,612.936242 L522.454243,567.634228 C522.454243,565.967114 523.807188,564.614094 525.47421,564.614094" id="Path" fill="#6262CC" fill-rule="nonzero"></path>
                <path d="M462.054908,501.191275 L507.354409,501.191275 C509.021431,501.191275 510.374376,502.544295 510.374376,504.211409 L510.374376,549.513423 C510.374376,551.180537 509.021431,552.533557 507.354409,552.533557 L462.054908,552.533557 C460.387887,552.533557 459.034942,551.180537 459.034942,549.513423 L459.034942,504.211409 C459.034942,502.544295 460.387887,501.191275 462.054908,501.191275" id="Path" fill="#3F3177" fill-rule="nonzero"></path>
                <path d="M462.054908,564.614094 L507.354409,564.614094 C509.021431,564.614094 510.374376,565.967114 510.374376,567.634228 L510.374376,612.936242 C510.374376,614.603356 509.021431,615.956376 507.354409,615.956376 L462.054908,615.956376 C460.387887,615.956376 459.034942,614.603356 459.034942,612.936242 L459.034942,567.634228 C459.034942,565.967114 460.387887,564.614094 462.054908,564.614094" id="Path" fill="#9795F9" fill-rule="nonzero"></path>
                <path d="M398.635607,501.191275 L443.935108,501.191275 C445.60213,501.191275 446.955075,502.544295 446.955075,504.211409 L446.955075,549.513423 C446.955075,551.180537 445.60213,552.533557 443.935108,552.533557 L398.635607,552.533557 C396.968586,552.533557 395.615641,551.180537 395.615641,549.513423 L395.615641,504.211409 C395.615641,502.544295 396.968586,501.191275 398.635607,501.191275" id="Path" fill="#6262CC" fill-rule="nonzero"></path>
                <path d="M398.635607,564.614094 L443.935108,564.614094 C445.60213,564.614094 446.955075,565.967114 446.955075,567.634228 L446.955075,612.936242 C446.955075,614.603356 445.60213,615.956376 443.935108,615.956376 L398.635607,615.956376 C396.968586,615.956376 395.615641,614.603356 395.615641,612.936242 L395.615641,567.634228 C395.615641,565.967114 396.968586,564.614094 398.635607,564.614094" id="Path" fill="#3F3177" fill-rule="nonzero"></path>
                <g id="Group" transform="translate(63.419301, 561.744966)" fill-rule="nonzero">
                    <polygon id="Path" fill="url(#linearGradient-value-6)" points="3.01694676 2.86912752 274.813952 2.86912752 274.813952 54.2114094 3.01694676 54.2114094"></polygon>
                    <path d="M271.797005,2.86912752 L317.096506,2.86912752 C318.763527,2.86912752 320.116473,4.22214765 320.116473,5.88926174 L320.116473,51.1912752 C320.116473,52.8583893 318.763527,54.2114094 317.096506,54.2114094 L271.797005,54.2114094 C270.129983,54.2114094 268.777038,52.8583893 268.777038,51.1912752 L268.777038,5.88926174 C268.777038,4.22214765 270.129983,2.86912752 271.797005,2.86912752" id="Path" fill="#9795F9"></path>
                </g>
                <path d="M697.612313,615.956376 L652.312812,615.956376 C650.64579,615.956376 649.292845,614.603356 649.292845,612.936242 L649.292845,567.634228 C649.292845,565.967114 650.64579,564.614094 652.312812,564.614094 L697.612313,564.614094 C699.279334,564.614094 700.63228,565.967114 700.63228,567.634228 L700.63228,612.936242 C700.63228,614.603356 699.279334,615.956376 697.612313,615.956376" id="Path" fill="#9795F9" fill-rule="nonzero"></path>
                <path d="M715.732113,679.409396 L761.031614,679.409396 C762.698636,679.409396 764.051581,678.056376 764.051581,676.389262 L764.051581,631.087248 C764.051581,629.420134 762.698636,628.067114 761.031614,628.067114 L715.732113,628.067114 C714.065092,628.067114 712.712146,629.420134 712.712146,631.087248 L712.712146,676.389262 C712.712146,678.056376 714.065092,679.409396 715.732113,679.409396" id="Path" fill="#6262CC" fill-rule="nonzero"></path>
                <path d="M652.312812,679.409396 L697.612313,679.409396 C699.279334,679.409396 700.63228,678.056376 700.63228,676.389262 L700.63228,631.087248 C700.63228,629.420134 699.279334,628.067114 697.612313,628.067114 L652.312812,628.067114 C650.64579,628.067114 649.292845,629.420134 649.292845,631.087248 L649.292845,676.389262 C649.292845,678.056376 650.64579,679.409396 652.312812,679.409396" id="Path" fill="#E4E4E4" fill-rule="nonzero"></path>
                <path d="M380.515807,628.067114 L335.216306,628.067114 C333.549285,628.067114 332.196339,629.420134 332.196339,631.087248 L332.196339,676.389262 C332.196339,678.056376 333.549285,679.409396 335.216306,679.409396 L380.515807,679.409396 C382.182829,679.409396 383.535774,678.056376 383.535774,676.389262 L383.535774,631.087248 C383.535774,629.417114 382.182829,628.067114 380.515807,628.067114" id="Path" fill="#E4E4E4" fill-rule="nonzero"></path>
                <path d="M443.935108,628.067114 L398.635607,628.067114 C396.968586,628.067114 395.615641,629.420134 395.615641,631.087248 L395.615641,676.389262 C395.615641,678.056376 396.968586,679.409396 398.635607,679.409396 L443.935108,679.409396 C445.60213,679.409396 446.955075,678.056376 446.955075,676.389262 L446.955075,631.087248 C446.955075,629.417114 445.60213,628.067114 443.935108,628.067114" id="Path" fill="#6262CC" fill-rule="nonzero"></path>
                <path d="M507.354409,628.067114 L462.054908,628.067114 C460.387887,628.067114 459.034942,629.420134 459.034942,631.087248 L459.034942,676.389262 C459.034942,678.056376 460.387887,679.409396 462.054908,679.409396 L507.354409,679.409396 C509.021431,679.409396 510.374376,678.056376 510.374376,676.389262 L510.374376,631.087248 C510.374376,629.417114 509.021431,628.067114 507.354409,628.067114" id="Path" fill="#9795F9" fill-rule="nonzero"></path>
                <path d="M570.77371,628.067114 L525.47421,628.067114 C523.807188,628.067114 522.454243,629.420134 522.454243,631.087248 L522.454243,676.389262 C522.454243,678.056376 523.807188,679.409396 525.47421,679.409396 L570.77371,679.409396 C572.440732,679.409396 573.793677,678.056376 573.793677,676.389262 L573.793677,631.087248 C573.793677,629.417114 572.440732,628.067114 570.77371,628.067114" id="Path" fill="#3F3177" fill-rule="nonzero"></path>
                <path d="M634.193012,628.067114 L588.893511,628.067114 C587.226489,628.067114 585.873544,629.420134 585.873544,631.087248 L585.873544,676.389262 C585.873544,678.056376 587.226489,679.409396 588.893511,679.409396 L634.193012,679.409396 C635.860033,679.409396 637.212978,678.056376 637.212978,676.389262 L637.212978,631.087248 C637.212978,629.417114 635.860033,628.067114 634.193012,628.067114" id="Path" fill="#272359" fill-rule="nonzero"></path>
                <g id="Group" transform="translate(0.000000, 625.167785)" fill-rule="nonzero">
                    <polygon id="Path" fill="url(#linearGradient-value-7)" points="3.01392679 2.89932886 274.810932 2.89932886 274.810932 54.2416107 3.01392679 54.2416107"></polygon>
                    <path d="M271.793985,54.2416107 L317.093486,54.2416107 C318.760507,54.2416107 320.113453,52.8885906 320.113453,51.2214765 L320.113453,5.91946309 C320.113453,4.25234899 318.760507,2.89932886 317.093486,2.89932886 L271.793985,2.89932886 C270.126963,2.89932886 268.774018,4.25234899 268.774018,5.91946309 L268.774018,51.2214765 C268.774018,52.8885906 270.126963,54.2416107 271.793985,54.2416107" id="Path" fill="#6262CC"></path>
                </g>
                <path d="M214.414617,661.258389 C234.542696,661.258389 234.542696,649.177852 254.670774,649.177852 C274.801872,649.177852 274.801872,661.258389 294.93297,661.258389 C315.061048,661.258389 315.061048,649.177852 335.189126,649.177852 C355.317205,649.177852 355.317205,661.258389 375.445283,661.258389 C395.576381,661.258389 395.576381,649.177852 415.707479,649.177852 C435.841597,649.177852 435.841597,661.258389 455.975715,661.258389 C476.106814,661.258389 476.106814,649.177852 496.234892,649.177852 C516.36599,649.177852 516.36599,661.258389 536.500108,661.258389 C556.634226,661.258389 556.634226,649.177852 576.765324,649.177852 C596.890383,649.177852 596.890383,661.258389 617.018461,661.258389 C637.149559,661.258389 637.149559,649.177852 657.280657,649.177852 C677.417795,649.177852 677.417795,661.258389 697.557953,661.258389 C717.689052,661.258389 717.689052,649.177852 737.82317,649.177852 C757.969368,649.177852 757.969368,661.258389 778.115566,661.258389 C798.261764,661.258389 798.261764,649.177852 818.407962,649.177852" id="Path" stroke="#139B8B" stroke-width="6.04026846" stroke-linecap="round" stroke-linejoin="round"></path>
                <path d="M154.012263,785.234899 L214.411597,661.258389 C234.557795,661.258389 234.557795,649.177852 254.703993,649.177852 C274.850191,649.177852 274.850191,661.258389 294.996389,661.258389 C315.127488,661.258389 315.127488,649.177852 335.261606,649.177852 C355.398744,649.177852 355.398744,661.258389 375.538902,661.258389 C395.67,661.258389 395.67,649.177852 415.801098,649.177852 C435.926156,649.177852 435.926156,661.258389 456.054235,661.258389 C476.188353,661.258389 476.188353,649.177852 496.319451,649.177852 C516.450549,649.177852 516.450549,661.258389 536.584667,661.258389 C556.715765,661.258389 556.715765,649.177852 576.843844,649.177852 C596.977962,649.177852 596.977962,661.258389 617.11208,661.258389 C637.243178,661.258389 637.243178,649.177852 657.374276,649.177852 C677.502354,649.177852 677.502354,661.258389 697.630433,661.258389 C717.758511,661.258389 717.758511,649.177852 737.886589,649.177852 C758.017687,649.177852 758.017687,661.258389 778.148785,661.258389 C798.276864,661.258389 798.276864,649.177852 818.404942,649.177852 L758.005607,785.234899 L154.012263,785.234899" id="Path" fill="url(#linearGradient-value-8)" fill-rule="nonzero"></path>
                <path d="M486.909235,364.379195 L545.792546,359.667785 C549.353087,359.383893 551.892879,356.082886 551.252646,352.56745 L526.639917,216.927181 C525.966464,213.221477 522.106947,211.028859 518.579626,212.348658 L487.972263,223.804027 C485.671048,224.664765 484.121805,226.824161 484.052346,229.288591 L480.386106,358.184899 C480.289468,361.778859 483.327554,364.666107 486.909235,364.379195" id="Path" fill="#C69C6D" fill-rule="nonzero"></path>
                <path d="M465.648669,489.110738 L567.252429,489.110738 C570.77673,489.110738 573.5551,486.102685 573.274243,482.587248 L562.257404,344.878188 C561.967488,341.272148 558.597205,338.726174 555.051764,339.435906 L475.53906,355.339933 C472.914709,355.865436 470.95173,358.052013 470.707113,360.715772 L459.632895,482.517785 C459.312779,486.057383 462.097188,489.107718 465.648669,489.107718" id="Path" fill="#A67C52" fill-rule="nonzero"></path>
                <ellipse id="Oval" fill="#C69C6D" fill-rule="nonzero" cx="473.832779" cy="98.2419463" rx="21.1397671" ry="21.1409396"></ellipse>
                <ellipse id="Oval" fill="#C69C6D" fill-rule="nonzero" cx="519.13228" cy="98.2419463" rx="21.1397671" ry="21.1409396"></ellipse>
                <ellipse id="Oval" fill="#A67C52" fill-rule="nonzero" cx="491.952579" cy="77.1010067" rx="21.1397671" ry="21.1409396"></ellipse>
                <g id="Group" transform="translate(486.214642, 0.000000)" fill-rule="nonzero">
                    <path d="M102.074875,60.4026846 C91.7858486,50.6627517 82.131015,45.3020134 82.131015,45.3020134 L85.576797,60.4026846 L1.6156822,60.4026846 C1.6156822,60.4026846 55.7002662,0 122.414351,0 C189.128436,0 243.21302,60.4026846 243.21302,60.4026846 L180.59703,60.4026846 C170.311023,50.6627517 160.65317,45.3020134 160.65317,45.3020134 L164.095932,60.4026846 L102.074875,60.4026846" id="Path" fill="#139B8B"></path>
                    <path d="M102.074875,60.4026846 C91.7858486,50.6627517 82.131015,45.3020134 82.131015,45.3020134 L85.576797,60.4026846 L1.6156822,60.4026846 C1.6156822,60.4026846 55.7002662,30.2013423 122.414351,30.2013423 C189.125416,30.2013423 243.21302,60.4026846 243.21302,60.4026846 L180.59703,60.4026846 C170.311023,50.6627517 160.65317,45.3020134 160.65317,45.3020134 L164.095932,60.4026846 L102.074875,60.4026846" id="Path" fill="#078973"></path>
                </g>
                <g id="Group" transform="translate(250.657238, 0.000000)" fill-rule="nonzero">
                    <path d="M142.753827,60.4026846 C153.042854,50.6627517 162.697687,45.3020134 162.697687,45.3020134 L159.251905,60.4026846 L243.21302,60.4026846 C243.21302,60.4026846 189.128436,0 122.414351,0 C55.7002662,0 1.6156822,60.4026846 1.6156822,60.4026846 L64.2316722,60.4026846 C74.5176789,50.6627517 84.1755324,45.3020134 84.1755324,45.3020134 L80.7327704,60.4026846 L142.753827,60.4026846" id="Path" fill="#139B8B"></path>
                    <path d="M142.753827,60.4026846 C153.042854,50.6627517 162.697687,45.3020134 162.697687,45.3020134 L159.251905,60.4026846 L243.21302,60.4026846 C243.21302,60.4026846 189.128436,30.2013423 122.414351,30.2013423 C55.7032862,30.2013423 1.6156822,60.4026846 1.6156822,60.4026846 L64.2316722,60.4026846 C74.5176789,50.6627517 84.1755324,45.3020134 84.1755324,45.3020134 L80.7327704,60.4026846 L142.753827,60.4026846" id="Path" fill="#078973"></path>
                </g>
                <g id="Group" transform="translate(320.116473, 60.402685)" fill-rule="nonzero">
                    <path d="M102.920466,71.257047 C103.310042,57.0956376 106.348128,46.4738255 106.348128,46.4738255 L114.589617,59.5872483 L173.959143,0.21442953 C173.959143,0.21442953 93.0089351,-4.25234899 45.8219551,42.9191275 C-1.36502496,90.090604 3.11962562,171.063423 3.11962562,171.063423 L47.3953577,126.785235 C47.7819135,112.623826 50.82,102.005034 50.82,102.005034 L59.0614892,115.118456 L102.920466,71.2600671" id="Path" fill="#139B8B"></path>
                    <path d="M102.920466,71.257047 C103.310042,57.0956376 106.348128,46.4738255 106.348128,46.4738255 L114.589617,59.5872483 L173.959143,0.21442953 C173.959143,0.21442953 114.36312,17.1030201 67.2033195,64.2714765 C20.0435191,111.439933 3.11962562,171.063423 3.11962562,171.063423 L47.3953577,126.785235 C47.7819135,112.623826 50.82,102.005034 50.82,102.005034 L59.0614892,115.118456 L102.920466,71.2600671" id="Path" fill="#078973"></path>
                </g>
                <g id="Group" transform="translate(486.214642, 60.402685)" fill-rule="nonzero">
                    <path d="M72.7509983,71.257047 C72.3614226,57.0956376 69.3233361,46.4738255 69.3233361,46.4738255 L61.0818469,59.5872483 L1.71232113,0.21442953 C1.71232113,0.21442953 82.6625291,-4.25234899 129.849509,42.9191275 C177.036489,90.090604 172.551839,171.063423 172.551839,171.063423 L128.276106,126.785235 C127.889551,112.623826 124.851464,102.005034 124.851464,102.005034 L116.609975,115.118456 L72.7570383,71.2630872" id="Path" fill="#139B8B"></path>
                    <path d="M72.7509983,71.257047 C72.3614226,57.0956376 69.3233361,46.4738255 69.3233361,46.4738255 L61.0818469,59.5872483 L1.71232113,0.21442953 C1.71232113,0.21442953 61.3083444,17.1030201 108.468145,64.2714765 C155.627945,111.439933 172.521639,171.063423 172.521639,171.063423 L128.245907,126.785235 C127.859351,112.623826 124.821265,102.005034 124.821265,102.005034 L116.579775,115.118456 L72.7268386,71.2630872" id="Path" fill="#078973"></path>
                </g>
            </g>
        </g>
    </g>
</svg>
